---
http_interactions:
- request:
    method: get
    uri: https://api.flickr.com/services/rest?api_key=<FLICKR_API_KEY>&extras=url_o&format=json&method=flickr.photos.search&nojsoncallback=1&text=denver,co%20skyline
    body:
      encoding: US-ASCII
      string: ''
    headers:
      User-Agent:
      - Faraday v0.15.4
      Accept-Encoding:
      - gzip;q=1.0,deflate;q=0.6,identity;q=0.3
      Accept:
      - "*/*"
  response:
    status:
      code: 200
      message: OK
    headers:
      Content-Type:
      - application/json
      Transfer-Encoding:
      - chunked
      Connection:
      - keep-alive
      Date:
      - Wed, 31 Jul 2019 18:18:14 GMT
      Server:
      - Apache/2.4.39 (Ubuntu)
      X-Content-Type-Options:
      - nosniff
      X-Frame-Options:
      - SAMEORIGIN
      X-Cache:
      - Miss from cloudfront
      Via:
      - 1.1 1e5c934b70471a41d2b61ae8c4abeb79.cloudfront.net (CloudFront)
      X-Amz-Cf-Pop:
      - DEN50-C2
      X-Amz-Cf-Id:
      - Sw8oCNd9AxMaRMJSBMskcqrQUoImGEd2odHz8s3Diwp-gdJURurQhA==
    body:
      encoding: UTF-8
      string: '{"photos":{"page":1,"pages":3,"perpage":100,"total":"281","photo":[{"id":"33823599548","owner":"35390579@N04","secret":"eee1c4fc2a","server":"65535","farm":66,"title":"Day115_2019","ispublic":1,"isfriend":0,"isfamily":0,"url_o":"https:\/\/live.staticflickr.com\/65535\/33823599548_94b25d982b_o.jpg","height_o":"666","width_o":"2000"},{"id":"46374171684","owner":"56683178@N06","secret":"43657512eb","server":"7813","farm":8,"title":"Denver
        Union Station  Trackside View June, 1998","ispublic":1,"isfriend":0,"isfamily":0,"url_o":"https:\/\/live.staticflickr.com\/7813\/46374171684_17e88e104a_o.jpg","height_o":"4074","width_o":"6063"},{"id":"31486905318","owner":"66898813@N06","secret":"e0a3d94042","server":"1901","farm":2,"title":"Denver,
        CO | 2018.10.16 | RTD Rail by the Blue Bear","ispublic":1,"isfriend":0,"isfamily":0,"url_o":"https:\/\/live.staticflickr.com\/1901\/31486905318_baf6d61849_o.jpg","height_o":"1080","width_o":"1920"},{"id":"44255337385","owner":"56683178@N06","secret":"4bd41ccfcf","server":"1938","farm":2,"title":"BN
        2734 #597 at Prospect Jct.  Denver, CO April 27, 1986","ispublic":1,"isfriend":0,"isfamily":0,"url_o":"https:\/\/live.staticflickr.com\/1938\/44255337385_79c4516d2d_o.jpg","height_o":"2050","width_o":"3128"},{"id":"42271115360","owner":"66898813@N06","secret":"3b3d1dd71a","server":"1837","farm":2,"title":"Denver,
        CO | 20189.08.16 | Denver Skyline","ispublic":1,"isfriend":0,"isfamily":0,"url_o":"https:\/\/live.staticflickr.com\/1837\/42271115360_a79343daaa_o.jpg","height_o":"1446","width_o":"4007"},{"id":"42266081200","owner":"66898813@N06","secret":"711e878806","server":"1832","farm":2,"title":"Denver,
        CO | 2018.08.15 | Denver Skyline","ispublic":1,"isfriend":0,"isfamily":0,"url_o":"https:\/\/live.staticflickr.com\/1832\/42266081200_90470fa46c_o.jpg","height_o":"1716","width_o":"3705"},{"id":"42848319015","owner":"75688338@N00","secret":"6d400d9478","server":"1773","farm":2,"title":"07.30.18","ispublic":1,"isfriend":0,"isfamily":0,"url_o":"https:\/\/live.staticflickr.com\/1773\/42848319015_bd14f9ff82_o.jpg","height_o":"1971","width_o":"2760"},{"id":"43691964192","owner":"8121206@N07","secret":"4ff507454d","server":"930","farm":1,"title":"Denver
        Skyline","ispublic":1,"isfriend":0,"isfamily":0},{"id":"43261941242","owner":"11581147@N06","secret":"9d1cd14c20","server":"844","farm":1,"title":"Jefferson
        County, Colorado Sheriff_P1030176c","ispublic":1,"isfriend":0,"isfamily":0,"url_o":"https:\/\/live.staticflickr.com\/844\/43261941242_22687f1207_o.jpg","height_o":"2285","width_o":"3427"},{"id":"43261940402","owner":"11581147@N06","secret":"083afb5389","server":"1786","farm":2,"title":"Denver
        Skyline from CO-93_P1030095c","ispublic":1,"isfriend":0,"isfamily":0,"url_o":"https:\/\/live.staticflickr.com\/1786\/43261940402_621a37d6f6_o.jpg","height_o":"2145","width_o":"3217"},{"id":"39906801434","owner":"75688338@N00","secret":"9732467d50","server":"4786","farm":5,"title":"03.03.18","ispublic":1,"isfriend":0,"isfamily":0,"url_o":"https:\/\/live.staticflickr.com\/4786\/39906801434_1e7a67caf3_o.jpg","height_o":"2993","width_o":"3990"},{"id":"38743877730","owner":"25273938@N03","secret":"16ff5076b3","server":"4623","farm":5,"title":"Whitetail
        Buck and the Denver Skyline","ispublic":1,"isfriend":0,"isfamily":0,"url_o":"https:\/\/live.staticflickr.com\/4623\/38743877730_20e0a30c67_o.jpg","height_o":"3654","width_o":"5812"},{"id":"40507202451","owner":"25273938@N03","secret":"25e1738b89","server":"4604","farm":5,"title":"The
        Denver Skyline","ispublic":1,"isfriend":0,"isfamily":0,"url_o":"https:\/\/live.staticflickr.com\/4604\/40507202451_9b7f729f99_o.jpg","height_o":"2474","width_o":"5746"},{"id":"37704944052","owner":"91387508@N06","secret":"93033a14cd","server":"4454","farm":5,"title":"Maroon
        Bells Aspen, CO at Night","ispublic":1,"isfriend":0,"isfamily":0},{"id":"37466428181","owner":"91387508@N06","secret":"73d168deb9","server":"4448","farm":5,"title":"Denver
        Art Museum at Night","ispublic":1,"isfriend":0,"isfamily":0},{"id":"34436041506","owner":"91387508@N06","secret":"402f82655f","server":"4164","farm":5,"title":"Denver
        Skyline at Night 2017","ispublic":1,"isfriend":0,"isfamily":0},{"id":"33401431665","owner":"9535010@N04","secret":"4e23e5e0ff","server":"604","farm":1,"title":"Denver,
        Colorado","ispublic":1,"isfriend":0,"isfamily":0,"url_o":"https:\/\/live.staticflickr.com\/604\/33401431665_48f2d027e8_o.jpg","height_o":"1917","width_o":"3204"},{"id":"32552365243","owner":"9535010@N04","secret":"8986fda34e","server":"3796","farm":4,"title":"Denver
        Colorado","ispublic":1,"isfriend":0,"isfamily":0,"url_o":"https:\/\/live.staticflickr.com\/3796\/32552365243_d82619c670_o.jpg","height_o":"2624","width_o":"4108"},{"id":"32178799764","owner":"23742495@N07","secret":"358ab3a9fe","server":"479","farm":1,"title":"City
        Park LE","ispublic":1,"isfriend":0,"isfamily":0},{"id":"32878705161","owner":"23742495@N07","secret":"a6e86a7295","server":"2712","farm":3,"title":"Speer
        BLVD HDR","ispublic":1,"isfriend":0,"isfamily":0},{"id":"30352134521","owner":"74962050@N00","secret":"4011a499d0","server":"5777","farm":6,"title":"Sloan''s
        Lake Sunrise","ispublic":1,"isfriend":0,"isfamily":0,"url_o":"https:\/\/live.staticflickr.com\/5777\/30352134521_63fecec2f8_o.jpg","height_o":"3160","width_o":"4740"},{"id":"30061116812","owner":"59104074@N00","secret":"28a521ae0b","server":"7526","farm":8,"title":"IMG_3449","ispublic":1,"isfriend":0,"isfamily":0,"url_o":"https:\/\/live.staticflickr.com\/7526\/30061116812_2bc08d41a3_o.jpg","height_o":"3024","width_o":"4032"},{"id":"30061113642","owner":"59104074@N00","secret":"7bcd4d1fd6","server":"5580","farm":6,"title":"IMG_3446","ispublic":1,"isfriend":0,"isfamily":0,"url_o":"https:\/\/live.staticflickr.com\/5580\/30061113642_e22e67a634_o.jpg","height_o":"3024","width_o":"4032"},{"id":"29112449541","owner":"25273938@N03","secret":"990606dc24","server":"8320","farm":9,"title":"Denver
        Skyline","ispublic":1,"isfriend":0,"isfamily":0,"url_o":"https:\/\/live.staticflickr.com\/8320\/29112449541_427789654a_o.jpg","height_o":"2820","width_o":"4476"},{"id":"27538381193","owner":"9298332@N06","secret":"42dca12e0a","server":"7103","farm":8,"title":"Denver,
        CO: All Together Now","ispublic":1,"isfriend":0,"isfamily":0,"url_o":"https:\/\/live.staticflickr.com\/7103\/27538381193_5bb00e4b44_o.jpg","height_o":"2969","width_o":"2204"},{"id":"27863933135","owner":"137397895@N03","secret":"f7d42406f3","server":"7717","farm":8,"title":"Skyline_0050","ispublic":1,"isfriend":0,"isfamily":0,"url_o":"https:\/\/live.staticflickr.com\/7717\/27863933135_197ea26217_o.jpg","height_o":"3840","width_o":"5760"},{"id":"27252244784","owner":"137397895@N03","secret":"7539f57139","server":"7325","farm":8,"title":"Skyline_0053","ispublic":1,"isfriend":0,"isfamily":0,"url_o":"https:\/\/live.staticflickr.com\/7325\/27252244784_7d903696d7_o.jpg","height_o":"3840","width_o":"5760"},{"id":"27252230904","owner":"137397895@N03","secret":"f7fe49d80e","server":"7177","farm":8,"title":"Skyline_1891","ispublic":1,"isfriend":0,"isfamily":0,"url_o":"https:\/\/live.staticflickr.com\/7177\/27252230904_cf2d02fbf8_o.jpg","height_o":"3840","width_o":"5760"},{"id":"27294687991","owner":"73452868@N04","secret":"c2408dbfe6","server":"7318","farm":8,"title":"Civic
        Center Amphitheater","ispublic":1,"isfriend":0,"isfamily":0},{"id":"27331792256","owner":"73452868@N04","secret":"0e5df773a2","server":"7306","farm":8,"title":"Office
        buildings","ispublic":1,"isfriend":0,"isfamily":0},{"id":"26756263284","owner":"131230093@N07","secret":"7358f47bec","server":"7221","farm":8,"title":"Another
        day coming to an end","ispublic":1,"isfriend":0,"isfamily":0,"url_o":"https:\/\/live.staticflickr.com\/7221\/26756263284_2c8174c735_o.jpg","height_o":"4016","width_o":"6016"},{"id":"25200565159","owner":"53065168@N03","secret":"53a69104e4","server":"1472","farm":2,"title":"Adams-Mark
        Hotel Downtown---Denver, Co.","ispublic":1,"isfriend":0,"isfamily":0,"url_o":"https:\/\/live.staticflickr.com\/1472\/25200565159_860e41f6a0_o.jpg","height_o":"763","width_o":"1160"},{"id":"21109250781","owner":"44173198@N07","secret":"6211290774","server":"5654","farm":6,"title":"#Repost
        @cityofdenver with @repostapp. \u30fb\u30fb\u30fb Downtown #DenverCo #Colorado
        #milehighcity \ud83d\udcf7: @jake_blackson","ispublic":1,"isfriend":0,"isfamily":0,"url_o":"https:\/\/live.staticflickr.com\/5654\/21109250781_59805e4312_o.jpg","height_o":"1080","width_o":"1080"},{"id":"16980083570","owner":"24672027@N06","secret":"1663525260","server":"8705","farm":9,"title":"Denver,
        Colorado","ispublic":1,"isfriend":0,"isfamily":0},{"id":"16532910359","owner":"88913562@N00","secret":"33a5bbc471","server":"8669","farm":9,"title":"The
        view from the CEO''s window","ispublic":1,"isfriend":0,"isfamily":0,"url_o":"https:\/\/live.staticflickr.com\/8669\/16532910359_8746f1cc47_o.jpg","height_o":"2119","width_o":"4137"},{"id":"16313532238","owner":"21906768@N07","secret":"390cbaa7c8","server":"7421","farm":8,"title":"16
        DianaLea","ispublic":1,"isfriend":0,"isfamily":0,"url_o":"https:\/\/live.staticflickr.com\/7421\/16313532238_1c6e2220a7_o.jpg","height_o":"551","width_o":"800"},{"id":"16197088425","owner":"37033392@N06","secret":"b810aa49d9","server":"8585","farm":9,"title":"Theater
        District","ispublic":1,"isfriend":0,"isfamily":0,"url_o":"https:\/\/live.staticflickr.com\/8585\/16197088425_6b00c056a9_o.jpg","height_o":"2648","width_o":"3935"},{"id":"15448125923","owner":"37033392@N06","secret":"5825b3fe93","server":"7479","farm":8,"title":"Riding
        the light","ispublic":1,"isfriend":0,"isfamily":0,"url_o":"https:\/\/live.staticflickr.com\/7479\/15448125923_b4a1915799_o.jpg","height_o":"2848","width_o":"4288"},{"id":"15767992161","owner":"127908438@N06","secret":"ea2998ae79","server":"7514","farm":8,"title":"Denver
        at Night","ispublic":1,"isfriend":0,"isfamily":0,"url_o":"https:\/\/live.staticflickr.com\/7514\/15767992161_819e33b623_o.jpg","height_o":"3853","width_o":"5751"},{"id":"15443357840","owner":"57267220@N08","secret":"4d118d75c7","server":"3951","farm":4,"title":"Orange
        Crush","ispublic":1,"isfriend":0,"isfamily":0},{"id":"14732923510","owner":"124842099@N03","secret":"7e394ec867","server":"5572","farm":6,"title":"Summer
        Night In Denver, Colorado","ispublic":1,"isfriend":0,"isfamily":0},{"id":"14272496823","owner":"124842099@N03","secret":"fcbccb9049","server":"2920","farm":3,"title":"Denver
        Skyline","ispublic":1,"isfriend":0,"isfamily":0},{"id":"12025569276","owner":"74644590@N08","secret":"3d8fb93943","server":"7385","farm":8,"title":"Denver
        City and County Building Lights","ispublic":1,"isfriend":0,"isfamily":0,"url_o":"https:\/\/live.staticflickr.com\/7385\/12025569276_e7ca6ef03d_o.jpg","height_o":"3264","width_o":"4928"},{"id":"12025013663","owner":"74644590@N08","secret":"a196fec67c","server":"7382","farm":8,"title":"Denver
        City Skyline","ispublic":1,"isfriend":0,"isfamily":0,"url_o":"https:\/\/live.staticflickr.com\/7382\/12025013663_01e1db17e1_o.jpg","height_o":"3229","width_o":"4875"},{"id":"10142662543","owner":"101415706@N04","secret":"2bd3e49c17","server":"2882","farm":3,"title":"Denver!","ispublic":1,"isfriend":0,"isfamily":0,"url_o":"https:\/\/live.staticflickr.com\/2882\/10142662543_ee35da56d3_o.jpg","height_o":"2448","width_o":"3264"},{"id":"9790803923","owner":"101966736@N03","secret":"b6c980401c","server":"3830","farm":4,"title":"Clear","ispublic":1,"isfriend":0,"isfamily":0,"url_o":"https:\/\/live.staticflickr.com\/3830\/9790803923_aa5a12d72e_o.jpg","height_o":"1278","width_o":"1278"},{"id":"9787273033","owner":"96725308@N07","secret":"a4c8b6e0d0","server":"7359","farm":8,"title":"","ispublic":1,"isfriend":0,"isfamily":0,"url_o":"https:\/\/live.staticflickr.com\/7359\/9787273033_5ddbe61a36_o.jpg","height_o":"3240","width_o":"4320"},{"id":"9786979962","owner":"96725308@N07","secret":"a6e49ea750","server":"7385","farm":8,"title":"","ispublic":1,"isfriend":0,"isfamily":0,"url_o":"https:\/\/live.staticflickr.com\/7385\/9786979962_3935c35034_o.jpg","height_o":"3240","width_o":"4320"},{"id":"8454429036","owner":"93174672@N00","secret":"00a4c51dd9","server":"8242","farm":9,"title":"","ispublic":1,"isfriend":0,"isfamily":0},{"id":"8191560839","owner":"65785219@N02","secret":"6a61fc2a09","server":"8208","farm":9,"title":"Gate''s
        Roof","ispublic":1,"isfriend":0,"isfamily":0},{"id":"8168105255","owner":"93174672@N00","secret":"4923146821","server":"7253","farm":8,"title":"JONAS
        BROTHERS FURS BUILDING-1037 BROADWAY","ispublic":1,"isfriend":0,"isfamily":0},{"id":"8159002437","owner":"93174672@N00","secret":"55d9eb0fce","server":"8198","farm":9,"title":"LITTLETON
        CREAMERY\/BEATRICE FOODS COLD STORAGE WAREHOUSE-1801 Wynkoop","ispublic":1,"isfriend":0,"isfamily":0},{"id":"8117429947","owner":"9607676@N05","secret":"07f1bf8fbd","server":"8049","farm":9,"title":"Denver
        Skyline","ispublic":1,"isfriend":0,"isfamily":0},{"id":"8111022990","owner":"93174672@N00","secret":"0272c2442b","server":"8050","farm":9,"title":"MONTVIEW
        BOULEVARD PRESBYTERIAN CHURCH-1980 DAHLIA STREET","ispublic":1,"isfriend":0,"isfamily":0},{"id":"8098982168","owner":"93174672@N00","secret":"c40165e242","server":"8468","farm":9,"title":"LITTLETON
        CREAMERY\/BEATRICE FOODS COLD STORAGE WAREHOUSE-1801 Wynkoop","ispublic":1,"isfriend":0,"isfamily":0},{"id":"8094352654","owner":"93174672@N00","secret":"e4a1658626","server":"8044","farm":9,"title":"P1030990","ispublic":1,"isfriend":0,"isfamily":0},{"id":"8081673969","owner":"93174672@N00","secret":"73c6e575e6","server":"8191","farm":9,"title":"IDEAL
        BUILDING-821 17th Street","ispublic":1,"isfriend":0,"isfamily":0},{"id":"8079030699","owner":"93174672@N00","secret":"e97c0fe42c","server":"8053","farm":9,"title":"DSCN1456","ispublic":1,"isfriend":0,"isfamily":0},{"id":"8076168485","owner":"93174672@N00","secret":"8674d04546","server":"8043","farm":9,"title":"BUERGER
        BROTHERS BUILDING AND ANNEX-1732-1740 and 1742 Champa Street","ispublic":1,"isfriend":0,"isfamily":0},{"id":"8075049895","owner":"93174672@N00","secret":"00b51aa2e8","server":"7252","farm":8,"title":"A.C.
        FOSTER BUILDING\/UNIVERSITY BUILDING-912 16th Street","ispublic":1,"isfriend":0,"isfamily":0},{"id":"8074292809","owner":"93174672@N00","secret":"7cdf71e29b","server":"8033","farm":9,"title":"KISTLER
        STATIONERY BUILDING-1636 Champa Street","ispublic":1,"isfriend":0,"isfamily":0},{"id":"7980501460","owner":"93174672@N00","secret":"49d21cf240","server":"8445","farm":9,"title":"DENVER
        DRY GOODS COMPANY BUILDING-16th & California Streets","ispublic":1,"isfriend":0,"isfamily":0},{"id":"7804854862","owner":"93174672@N00","secret":"7bcc05503d","server":"7132","farm":8,"title":"DENVER
        PUBLIC LIBRARY-10 West 14th Avenue Parkway","ispublic":1,"isfriend":0,"isfamily":0},{"id":"7779996790","owner":"93174672@N00","secret":"8d4446fd17","server":"7109","farm":8,"title":"TIVOLI
        BREWERY COMPANY-1320-1348 10th Street","ispublic":1,"isfriend":0,"isfamily":0},{"id":"7710846732","owner":"7188159@N05","secret":"09b68379ae","server":"7109","farm":8,"title":"02431_DenverCO_080312","ispublic":1,"isfriend":0,"isfamily":0},{"id":"7710811140","owner":"7188159@N05","secret":"fd04d38580","server":"8291","farm":9,"title":"02461_DenverCO_080312","ispublic":1,"isfriend":0,"isfamily":0},{"id":"7451457662","owner":"23742495@N07","secret":"64f433cba4","server":"8160","farm":9,"title":"coors
        instagram","ispublic":1,"isfriend":0,"isfamily":0},{"id":"7451449844","owner":"23742495@N07","secret":"9505f1e3e9","server":"7107","farm":8,"title":"coors
        media","ispublic":1,"isfriend":0,"isfamily":0},{"id":"7451437620","owner":"23742495@N07","secret":"14cece380a","server":"8167","farm":9,"title":"Coors
        Pano","ispublic":1,"isfriend":0,"isfamily":0},{"id":"7451422912","owner":"23742495@N07","secret":"309819f3c3","server":"8162","farm":9,"title":"pedicabs","ispublic":1,"isfriend":0,"isfamily":0},{"id":"6830362977","owner":"45206671@N00","secret":"42b79fdd16","server":"7152","farm":8,"title":"Downtown
        Denver from the Central Library","ispublic":1,"isfriend":0,"isfamily":0,"url_o":"https:\/\/live.staticflickr.com\/7152\/6830362977_d8848c3459_o.jpg","height_o":"2448","width_o":"3264"},{"id":"6454349297","owner":"45206671@N00","secret":"c208e31508","server":"7149","farm":8,"title":"LoDo
        from the 20th Street Viaduct","ispublic":1,"isfriend":0,"isfamily":0,"url_o":"https:\/\/live.staticflickr.com\/7149\/6454349297_1c5dfd12b0_o.jpg","height_o":"773","width_o":"1251"},{"id":"6165604843","owner":"32532829@N00","secret":"b02a06fe76","server":"6180","farm":7,"title":"Juxtaposition","ispublic":1,"isfriend":0,"isfamily":0},{"id":"6118932517","owner":"97355281@N00","secret":"530bb77fbc","server":"6082","farm":7,"title":"Downtown
        Denver","ispublic":1,"isfriend":0,"isfamily":0,"url_o":"https:\/\/live.staticflickr.com\/6082\/6118932517_c67d8480fd_o.jpg","height_o":"3648","width_o":"2736"},{"id":"6118931773","owner":"97355281@N00","secret":"651b2b158a","server":"6090","farm":7,"title":"Downtown
        Denver","ispublic":1,"isfriend":0,"isfamily":0,"url_o":"https:\/\/live.staticflickr.com\/6090\/6118931773_2140b2b7ef_o.jpg","height_o":"3648","width_o":"2736"},{"id":"6118930259","owner":"97355281@N00","secret":"4bab29b68a","server":"6199","farm":7,"title":"Downtown
        Denver","ispublic":1,"isfriend":0,"isfamily":0,"url_o":"https:\/\/live.staticflickr.com\/6199\/6118930259_9e676d7374_o.jpg","height_o":"3648","width_o":"2736"},{"id":"6118915567","owner":"97355281@N00","secret":"6534b297d5","server":"6074","farm":7,"title":"Downtown
        Denver","ispublic":1,"isfriend":0,"isfamily":0,"url_o":"https:\/\/live.staticflickr.com\/6074\/6118915567_029f40b8cb_o.jpg","height_o":"3648","width_o":"2736"},{"id":"6119458460","owner":"97355281@N00","secret":"3a6a066cd0","server":"6192","farm":7,"title":"Downtown
        Denver","ispublic":1,"isfriend":0,"isfamily":0,"url_o":"https:\/\/live.staticflickr.com\/6192\/6119458460_3d18270c9c_o.jpg","height_o":"3648","width_o":"2736"},{"id":"6119430444","owner":"97355281@N00","secret":"9c6b6bce55","server":"6083","farm":7,"title":"Downtown
        Denver","ispublic":1,"isfriend":0,"isfamily":0,"url_o":"https:\/\/live.staticflickr.com\/6083\/6119430444_69cfb44343_o.jpg","height_o":"2736","width_o":"3648"},{"id":"6118878147","owner":"97355281@N00","secret":"0e9286a4ce","server":"6075","farm":7,"title":"Downtown
        Denver","ispublic":1,"isfriend":0,"isfamily":0,"url_o":"https:\/\/live.staticflickr.com\/6075\/6118878147_361e21013c_o.jpg","height_o":"2736","width_o":"3648"},{"id":"6119418954","owner":"97355281@N00","secret":"3a34389c18","server":"6210","farm":7,"title":"Downtown
        Denver","ispublic":1,"isfriend":0,"isfamily":0,"url_o":"https:\/\/live.staticflickr.com\/6210\/6119418954_106bc43014_o.jpg","height_o":"2736","width_o":"3648"},{"id":"6119416502","owner":"97355281@N00","secret":"d4f01fe861","server":"6069","farm":7,"title":"Denver
        City Cable Railway","ispublic":1,"isfriend":0,"isfamily":0,"url_o":"https:\/\/live.staticflickr.com\/6069\/6119416502_6281b0c8b8_o.jpg","height_o":"2736","width_o":"3648"},{"id":"6118857837","owner":"97355281@N00","secret":"401ba7c33f","server":"6077","farm":7,"title":"Downtown
        Denver","ispublic":1,"isfriend":0,"isfamily":0,"url_o":"https:\/\/live.staticflickr.com\/6077\/6118857837_d9698901c4_o.jpg","height_o":"2736","width_o":"3648"},{"id":"6118852857","owner":"97355281@N00","secret":"59a1f3396d","server":"6071","farm":7,"title":"Downtown
        Denver","ispublic":1,"isfriend":0,"isfamily":0,"url_o":"https:\/\/live.staticflickr.com\/6071\/6118852857_5a4a449b79_o.jpg","height_o":"1536","width_o":"2048"},{"id":"6118852635","owner":"97355281@N00","secret":"983b7658f8","server":"6197","farm":7,"title":"Downtown
        Denver","ispublic":1,"isfriend":0,"isfamily":0,"url_o":"https:\/\/live.staticflickr.com\/6197\/6118852635_f98295a005_o.jpg","height_o":"1536","width_o":"2048"},{"id":"6098910944","owner":"23742495@N07","secret":"f7115e6389","server":"6190","farm":7,"title":"Pro
        Cycle Civic Park","ispublic":1,"isfriend":0,"isfamily":0},{"id":"6098335109","owner":"23742495@N07","secret":"b80d10abb0","server":"6203","farm":7,"title":"Pro
        Cycle Skyline","ispublic":1,"isfriend":0,"isfamily":0},{"id":"5981287281","owner":"64701065@N08","secret":"847017d8ef","server":"6028","farm":7,"title":"Downtown
        Denver skyline","ispublic":1,"isfriend":0,"isfamily":0,"url_o":"https:\/\/live.staticflickr.com\/6028\/5981287281_0c90891d33_o.jpg","height_o":"281","width_o":"640"},{"id":"5323716215","owner":"27479914@N00","secret":"9e8802f94e","server":"5206","farm":6,"title":"Colorado
        Capital Building (HDR)","ispublic":1,"isfriend":0,"isfamily":0},{"id":"5316601715","owner":"29861761@N08","secret":"8d8c390b4f","server":"5285","farm":6,"title":"Newcastle
        Brown Ale","ispublic":1,"isfriend":0,"isfamily":0,"url_o":"https:\/\/live.staticflickr.com\/5285\/5316601715_fc1a749618_o.jpg","height_o":"3456","width_o":"5184"},{"id":"5296778477","owner":"93174672@N00","secret":"0873792d41","server":"5089","farm":6,"title":"P1030867","ispublic":1,"isfriend":0,"isfamily":0},{"id":"5294634175","owner":"52553004@N02","secret":"e71beca124","server":"5210","farm":6,"title":"Denver
        skyline","ispublic":1,"isfriend":0,"isfamily":0,"url_o":"https:\/\/live.staticflickr.com\/5210\/5294634175_41efbb1028_o.jpg","height_o":"2032","width_o":"3060"},{"id":"5294633875","owner":"52553004@N02","secret":"c69a01cd4a","server":"5288","farm":6,"title":"Denver
        Architecture","ispublic":1,"isfriend":0,"isfamily":0,"url_o":"https:\/\/live.staticflickr.com\/5288\/5294633875_2bf02e8744_o.jpg","height_o":"2033","width_o":"3060"},{"id":"5294630483","owner":"52553004@N02","secret":"77bf949b9a","server":"5286","farm":6,"title":"Denver
        Skyline at Night","ispublic":1,"isfriend":0,"isfamily":0,"url_o":"https:\/\/live.staticflickr.com\/5286\/5294630483_9b868c571f_o.jpg","height_o":"2032","width_o":"3060"},{"id":"5285580703","owner":"29861761@N08","secret":"8d3d990854","server":"5046","farm":6,"title":"Downtown
        Denver","ispublic":1,"isfriend":0,"isfamily":0,"url_o":"https:\/\/live.staticflickr.com\/5046\/5285580703_b494e0f408_o.jpg","height_o":"2691","width_o":"5184"},{"id":"5219399014","owner":"73593848@N00","secret":"a0dd1acf0f","server":"5007","farm":6,"title":"DSC_1781","ispublic":1,"isfriend":0,"isfamily":0},{"id":"4930438414","owner":"43146960@N00","secret":"7f5066ee58","server":"4139","farm":5,"title":"Denver
        skyline from City Park","ispublic":1,"isfriend":0,"isfamily":0,"url_o":"https:\/\/live.staticflickr.com\/4139\/4930438414_35b6413316_o.jpg","height_o":"1682","width_o":"3986"},{"id":"4883306159","owner":"75081971@N00","secret":"4d62110020","server":"4099","farm":5,"title":"2009
        December Clocktower 109","ispublic":1,"isfriend":0,"isfamily":0},{"id":"4797282267","owner":"75081971@N00","secret":"88f0d9ab88","server":"4138","farm":5,"title":"2010
        Clocktower 157","ispublic":1,"isfriend":0,"isfamily":0},{"id":"4728382225","owner":"75081971@N00","secret":"ebb8362645","server":"1126","farm":2,"title":"Denver
        Skyline with Partial Double Rainbow","ispublic":1,"isfriend":0,"isfamily":0}]},"stat":"ok"}'
    http_version: 
  recorded_at: Wed, 31 Jul 2019 18:18:12 GMT
recorded_with: VCR 5.0.0
