---
http_interactions:
- request:
    method: get
    uri: https://api.flickr.com/services/rest?api_key=<FLICKR_API_KEY>&extras=url_o&format=json&method=flickr.photos.search&nojsoncallback=1&text=denver%20skyline
    body:
      encoding: US-ASCII
      string: ''
    headers:
      User-Agent:
      - Faraday v0.15.4
      Accept-Encoding:
      - gzip;q=1.0,deflate;q=0.6,identity;q=0.3
      Accept:
      - "*/*"
  response:
    status:
      code: 200
      message: OK
    headers:
      Content-Type:
      - application/json
      Transfer-Encoding:
      - chunked
      Connection:
      - keep-alive
      Date:
      - Wed, 31 Jul 2019 18:18:17 GMT
      Server:
      - Apache/2.4.39 (Ubuntu)
      X-Content-Type-Options:
      - nosniff
      X-Frame-Options:
      - SAMEORIGIN
      X-Cache:
      - Miss from cloudfront
      Via:
      - 1.1 29f1da35ce271d2cdc88184ed0c1f86d.cloudfront.net (CloudFront)
      X-Amz-Cf-Pop:
      - DEN50-C2
      X-Amz-Cf-Id:
      - Vt4_P_TCkHtZWc0VPyD-jsvR05rK2JnjEAkCn2YXLf14JFQhFlFB3w==
    body:
      encoding: UTF-8
      string: '{"photos":{"page":1,"pages":100,"perpage":100,"total":"9994","photo":[{"id":"48417962317","owner":"35946983@N00","secret":"91af1a6308","server":"65535","farm":66,"title":"Denver
        skyline","ispublic":1,"isfriend":0,"isfamily":0,"url_o":"https:\/\/live.staticflickr.com\/65535\/48417962317_c1841a6868_o.jpg","height_o":"3599","width_o":"6016"},{"id":"48417960682","owner":"35946983@N00","secret":"694bf48cce","server":"65535","farm":66,"title":"Denver
        skyline","ispublic":1,"isfriend":0,"isfamily":0,"url_o":"https:\/\/live.staticflickr.com\/65535\/48417960682_e2ce28b398_o.jpg","height_o":"2340","width_o":"4160"},{"id":"48333817446","owner":"54515111@N00","secret":"690a3bf439","server":"65535","farm":66,"title":"Bison
        at Rocky Mountain Arsenal","ispublic":1,"isfriend":0,"isfamily":0,"url_o":"https:\/\/live.staticflickr.com\/65535\/48333817446_3f9108d38d_o.jpg","height_o":"6075","width_o":"4050"},{"id":"48333954747","owner":"54515111@N00","secret":"9dc49d2944","server":"65535","farm":66,"title":"Bison
        at Rocky Mountain Arsenal","ispublic":1,"isfriend":0,"isfamily":0,"url_o":"https:\/\/live.staticflickr.com\/65535\/48333954747_b9a074c517_o.jpg","height_o":"3351","width_o":"5026"},{"id":"48333813076","owner":"54515111@N00","secret":"3f8716236c","server":"0","farm":0,"title":"Bison
        at Rocky Mountain Arsenal","ispublic":1,"isfriend":0,"isfamily":0,"url_o":"https:\/\/live.staticflickr.com\/31337\/48333813076_0acbf781e8_o.jpg","height_o":"1080","width_o":"1920"},{"id":"48333947802","owner":"54515111@N00","secret":"efb02e92f5","server":"65535","farm":66,"title":"Bison
        at Rocky Mountain Arsenal","ispublic":1,"isfriend":0,"isfamily":0,"url_o":"https:\/\/live.staticflickr.com\/65535\/48333947802_4936b6326b_o.jpg","height_o":"4160","width_o":"6240"},{"id":"48324606011","owner":"162345831@N04","secret":"2764c68f6d","server":"65535","farm":66,"title":"Broncos-Practice-Facility-05-062515-for-websitegood2","ispublic":1,"isfriend":0,"isfamily":0,"url_o":"https:\/\/live.staticflickr.com\/65535\/48324606011_53435ac381_o.jpg","height_o":"335","width_o":"800"},{"id":"48300670636","owner":"75074063@N00","secret":"6911fa217e","server":"65535","farm":66,"title":"Reflection
        deflection","ispublic":1,"isfriend":0,"isfamily":0,"url_o":"https:\/\/live.staticflickr.com\/65535\/48300670636_69bcd4d69d_o.jpg","height_o":"1363","width_o":"2048"},{"id":"48282970086","owner":"54515111@N00","secret":"268b8b34ba","server":"65535","farm":66,"title":"Downtown
        Denver Panorama","ispublic":1,"isfriend":0,"isfamily":0,"url_o":"https:\/\/live.staticflickr.com\/65535\/48282970086_7b9299686b_o.jpg","height_o":"1230","width_o":"6043"},{"id":"48272294082","owner":"134168486@N06","secret":"4638989d6c","server":"65535","farm":66,"title":"Mile
        High Skyline","ispublic":1,"isfriend":0,"isfamily":0,"url_o":"https:\/\/live.staticflickr.com\/65535\/48272294082_571f6aa7e6_o.jpg","height_o":"2427","width_o":"7360"},{"id":"48265075461","owner":"85051342@N06","secret":"2e403df038","server":"65535","farm":66,"title":"Denver","ispublic":1,"isfriend":0,"isfamily":0},{"id":"48265073611","owner":"85051342@N06","secret":"3bfc449919","server":"65535","farm":66,"title":"Denver","ispublic":1,"isfriend":0,"isfamily":0},{"id":"48262203807","owner":"10813293@N08","secret":"7c18223c6f","server":"65535","farm":66,"title":"IMG0101-Denver-skyline-1978-03-18","ispublic":1,"isfriend":0,"isfamily":0,"url_o":"https:\/\/live.staticflickr.com\/65535\/48262203807_041351f816_o.jpg","height_o":"439","width_o":"1024"},{"id":"48254864032","owner":"182403504@N08","secret":"e8304e502b","server":"65535","farm":66,"title":"night
        sky","ispublic":1,"isfriend":0,"isfamily":0},{"id":"48238857221","owner":"23370650@N06","secret":"87d7c4eb03","server":"65535","farm":66,"title":"Small
        Rainbow Over Denver","ispublic":1,"isfriend":0,"isfamily":0,"url_o":"https:\/\/live.staticflickr.com\/65535\/48238857221_d0693b48e8_o.jpg","height_o":"2356","width_o":"3036"},{"id":"48197402982","owner":"39877441@N05","secret":"086ebc16ea","server":"65535","farm":66,"title":"Denver
        Bison","ispublic":1,"isfriend":0,"isfamily":0,"url_o":"https:\/\/live.staticflickr.com\/65535\/48197402982_9184f64edd_o.jpg","height_o":"4480","width_o":"6720"},{"id":"48184487721","owner":"29801636@N00","secret":"d1d1145926","server":"65535","farm":66,"title":"Red
        Rocks","ispublic":1,"isfriend":0,"isfamily":0},{"id":"48182599191","owner":"45870467@N08","secret":"be9567f0e6","server":"65535","farm":66,"title":"Denver
        Skyline from Ferril Lake","ispublic":1,"isfriend":0,"isfamily":0},{"id":"48134285676","owner":"54158466@N06","secret":"42f295e9c9","server":"65535","farm":66,"title":"2018
        Staff Awards","ispublic":1,"isfriend":0,"isfamily":0,"url_o":"https:\/\/live.staticflickr.com\/65535\/48134285676_8a91945380_o.jpg","height_o":"2405","width_o":"4241"},{"id":"48117461066","owner":"29801636@N00","secret":"ac9347202d","server":"65535","farm":66,"title":"Denver","ispublic":1,"isfriend":0,"isfamily":0},{"id":"48100364248","owner":"144054535@N05","secret":"90d0c0287c","server":"65535","farm":66,"title":"Mid-Century
        Even More Modern","ispublic":1,"isfriend":0,"isfamily":0,"url_o":"https:\/\/live.staticflickr.com\/65535\/48100364248_20a2007d46_o.jpg","height_o":"3648","width_o":"5472"},{"id":"48098898286","owner":"156831486@N07","secret":"d5f8e71834","server":"65535","farm":66,"title":"Westminster
        Hill in storm light","ispublic":1,"isfriend":0,"isfamily":0},{"id":"48095670822","owner":"63495865@N00","secret":"486cf5c711","server":"65535","farm":66,"title":"Denver
        Wildlife Skyline-2","ispublic":1,"isfriend":0,"isfamily":0},{"id":"48071420917","owner":"23370650@N06","secret":"40d58410aa","server":"65535","farm":66,"title":"Denver''s
        Little Skyline","ispublic":1,"isfriend":0,"isfamily":0,"url_o":"https:\/\/live.staticflickr.com\/65535\/48071420917_7008971768_o.jpg","height_o":"1388","width_o":"1968"},{"id":"48049920622","owner":"143787765@N02","secret":"4cf2e75b5d","server":"65535","farm":66,"title":"Cloudless
        sunrise over the frozen lake with the city skyline in silhouette. Taken on
        2-2-19, at Sloan Lake in Denver, Colorado.  ~ ~ ~ ~ ~  #CanonRebelT5 #Canon
        #Rebel #T5 F\/11 35mm 1\/60s ISO-2000 #cloudless #sunrise #frozenlake #cityskyline
        #silhouette #","ispublic":1,"isfriend":0,"isfamily":0,"url_o":"https:\/\/live.staticflickr.com\/65535\/48049920622_def6d5fc53_o.jpg","height_o":"1348","width_o":"2048"},{"id":"48034470761","owner":"37372968@N06","secret":"00694aed09","server":"65535","farm":66,"title":"Alpenglow
        Over the Denver Skyline","ispublic":1,"isfriend":0,"isfamily":0},{"id":"48034581747","owner":"37372968@N06","secret":"75b036b40c","server":"65535","farm":66,"title":"Denver
        Skyline from Lincoln Park","ispublic":1,"isfriend":0,"isfamily":0},{"id":"48034201606","owner":"73829113@N05","secret":"c671a76de8","server":"65535","farm":66,"title":"P6090325","ispublic":1,"isfriend":0,"isfamily":0,"url_o":"https:\/\/live.staticflickr.com\/65535\/48034201606_965c0cc31f_o.jpg","height_o":"3456","width_o":"4608"},{"id":"48034081047","owner":"139677707@N07","secret":"27f10b549b","server":"65535","farm":66,"title":"Summer
        Skylines","ispublic":1,"isfriend":0,"isfamily":0,"url_o":"https:\/\/live.staticflickr.com\/65535\/48034081047_f9045d7567_o.jpg","height_o":"1419","width_o":"4608"},{"id":"47949098166","owner":"74216903@N00","secret":"30b8d34160","server":"65535","farm":66,"title":"Denver","ispublic":1,"isfriend":0,"isfamily":0},{"id":"47116534054","owner":"52579928@N04","secret":"1e8a2b0ca5","server":"65535","farm":66,"title":"Sunbathing","ispublic":1,"isfriend":0,"isfamily":0,"url_o":"https:\/\/live.staticflickr.com\/65535\/47116534054_fc8db631b9_o.jpg","height_o":"2573","width_o":"3836"},{"id":"40938701643","owner":"139677707@N07","secret":"d7a9ae6e5a","server":"65535","farm":66,"title":"Denver
        Skylines in a Noir Scenery","ispublic":1,"isfriend":0,"isfamily":0,"url_o":"https:\/\/live.staticflickr.com\/65535\/40938701643_cd4c1a372a_o.jpg","height_o":"4608","width_o":"3456"},{"id":"40935329723","owner":"155508233@N04","secret":"d679990689","server":"65535","farm":66,"title":"Sunset
        over the City","ispublic":1,"isfriend":0,"isfamily":0,"url_o":"https:\/\/live.staticflickr.com\/65535\/40935329723_ebd55f8fa7_o.jpg","height_o":"1927","width_o":"1820"},{"id":"47894564521","owner":"34235577@N03","secret":"f1bd040a5b","server":"65535","farm":66,"title":"DSC33_27343","ispublic":1,"isfriend":0,"isfamily":0},{"id":"32913676637","owner":"21128887@N00","secret":"5e1e405f87","server":"65535","farm":66,"title":"_K3A2720-Pano-Edit","ispublic":1,"isfriend":0,"isfamily":0},{"id":"40891279543","owner":"21128887@N00","secret":"7ca1177f5e","server":"65535","farm":66,"title":"_K3A0621-Edit","ispublic":1,"isfriend":0,"isfamily":0},{"id":"33979582828","owner":"20816374@N04","secret":"8606af537a","server":"65535","farm":66,"title":"P1000740-Edit","ispublic":1,"isfriend":0,"isfamily":0,"url_o":"https:\/\/live.staticflickr.com\/65535\/33979582828_0e4b51e021_o.jpg","height_o":"751","width_o":"1000"},{"id":"33979582228","owner":"20816374@N04","secret":"97a4e71638","server":"65535","farm":66,"title":"P1000730-Edit","ispublic":1,"isfriend":0,"isfamily":0,"url_o":"https:\/\/live.staticflickr.com\/65535\/33979582228_cab806e028_o.jpg","height_o":"751","width_o":"1000"},{"id":"33974620678","owner":"34235577@N03","secret":"59e914939a","server":"65535","farm":66,"title":"DSC33_27241","ispublic":1,"isfriend":0,"isfamily":0},{"id":"47849054551","owner":"143787765@N02","secret":"12945ba356","server":"65535","farm":66,"title":"Cloudless
        sunrise with the Denver skyline in silhouette, behind the frozen lake. Taken
        on 2-2-19, at Sloans Lake in Denver, Colorado.  ~ ~ ~ ~ ~  #CanonRebelT5 #Canon
        #Rebel #T5 F\/11 29mm 1\/40s ISO-1250 #cloudless #sunrise #Denver #skyline
        #silhouette #fr","ispublic":1,"isfriend":0,"isfamily":0,"url_o":"https:\/\/live.staticflickr.com\/65535\/47849054551_5893cb86e3_o.jpg","height_o":"3456","width_o":"5184"},{"id":"32879288917","owner":"139677707@N07","secret":"b05a43c55b","server":"65535","farm":66,"title":"Sunrise
        Over Denver","ispublic":1,"isfriend":0,"isfamily":0,"url_o":"https:\/\/live.staticflickr.com\/65535\/32879288917_5f4751b804_o.jpg","height_o":"3456","width_o":"4608"},{"id":"32867733627","owner":"171392017@N06","secret":"dcc7d7e2c4","server":"65535","farm":66,"title":"Denver
        2","ispublic":1,"isfriend":0,"isfamily":0,"url_o":"https:\/\/live.staticflickr.com\/65535\/32867733627_a33522400d_o.jpg","height_o":"1224","width_o":"1632"},{"id":"40819300613","owner":"41383470@N00","secret":"c55d530530","server":"65535","farm":66,"title":"Denver
        Skyline","ispublic":1,"isfriend":0,"isfamily":0},{"id":"46984533314","owner":"30607051@N00","secret":"fc50a66beb","server":"65535","farm":66,"title":"southwest
        flight wn4521 departs for denver","ispublic":1,"isfriend":0,"isfamily":0},{"id":"47709667632","owner":"54515111@N00","secret":"478b898b63","server":"65535","farm":66,"title":"Downtown
        Denver, from Diamond Hill","ispublic":1,"isfriend":0,"isfamily":0,"url_o":"https:\/\/live.staticflickr.com\/65535\/47709667632_6ef8e33edb_o.jpg","height_o":"4160","width_o":"6240"},{"id":"33885290898","owner":"54515111@N00","secret":"81694dd7aa","server":"65535","farm":66,"title":"Downtown
        Denver, from Diamond Hill","ispublic":1,"isfriend":0,"isfamily":0,"url_o":"https:\/\/live.staticflickr.com\/65535\/33885290898_b2109edfd0_o.jpg","height_o":"4160","width_o":"6240"},{"id":"33875489068","owner":"165532901@N05","secret":"fabd815a1b","server":"65535","farm":66,"title":"Vintage
        Denver Skyline Art Poster","ispublic":1,"isfriend":0,"isfamily":0,"url_o":"https:\/\/live.staticflickr.com\/65535\/33875489068_163d0fd3b3_o.jpg","height_o":"3000","width_o":"3000"},{"id":"46963237454","owner":"165532901@N05","secret":"7e03004a4c","server":"65535","farm":66,"title":"Vintage
        Denver Skyline Art Poster","ispublic":1,"isfriend":0,"isfamily":0,"url_o":"https:\/\/live.staticflickr.com\/65535\/46963237454_f3844f84a7_o.jpg","height_o":"1067","width_o":"600"},{"id":"46955958694","owner":"54515111@N00","secret":"a2f2a1a7e7","server":"65535","farm":66,"title":"Downtown
        Denver from Westminster, Colorado","ispublic":1,"isfriend":0,"isfamily":0,"url_o":"https:\/\/live.staticflickr.com\/65535\/46955958694_4ebb84b8cb_o.jpg","height_o":"3943","width_o":"10937"},{"id":"47692576542","owner":"54515111@N00","secret":"963c51938c","server":"65535","farm":66,"title":"Downtown
        Denver from Westminster, Colorado","ispublic":1,"isfriend":0,"isfamily":0,"url_o":"https:\/\/live.staticflickr.com\/65535\/47692576542_5264950202_o.jpg","height_o":"3885","width_o":"5827"},{"id":"46828677785","owner":"54515111@N00","secret":"6d930ec2d2","server":"65535","farm":66,"title":"Downtown
        Denver from Rocky Mountain Arsenal Nation Wildlife Refuge - Denver, Colorado","ispublic":1,"isfriend":0,"isfamily":0,"url_o":"https:\/\/live.staticflickr.com\/65535\/46828677785_045e8265a0_o.jpg","height_o":"3890","width_o":"5835"},{"id":"33868282778","owner":"54515111@N00","secret":"5875fc8477","server":"65535","farm":66,"title":"Bison
        - Rocky Mountain Arsenal Nation Wildlife Refuge - Denver, Colorado","ispublic":1,"isfriend":0,"isfamily":0,"url_o":"https:\/\/live.staticflickr.com\/65535\/33868282778_9cb256d1ab_o.jpg","height_o":"3856","width_o":"5784"},{"id":"33867654368","owner":"143787765@N02","secret":"6c4e77f379","server":"65535","farm":66,"title":"Golden
        sunset between the clouds, with a bit of the Denver city skyline silhouette
        against the front range of the Rocky Mountains. Taken on 4-24-17, in Aurora,
        Colorado.  ~ ~ ~ ~ ~  #XT1585 F\/2 5mm 1\/1075s ISO-50 #sunset #clouds #Denver
        #cityskyline #silh","ispublic":1,"isfriend":0,"isfamily":0,"url_o":"https:\/\/live.staticflickr.com\/65535\/33867654368_26e8669c08_o.jpg","height_o":"1080","width_o":"1080"},{"id":"40750995023","owner":"21115034@N04","secret":"c524d1925e","server":"65535","farm":66,"title":"downtown
        Denver","ispublic":1,"isfriend":0,"isfamily":0,"url_o":"https:\/\/live.staticflickr.com\/65535\/40750995023_6150891249_o.jpg","height_o":"3659","width_o":"5488"},{"id":"47715570621","owner":"34235577@N03","secret":"2dcef85610","server":"65535","farm":66,"title":"DSC33_25995","ispublic":1,"isfriend":0,"isfamily":0},{"id":"47656723842","owner":"141852728@N05","secret":"148c539d18","server":"65535","farm":66,"title":"Denver","ispublic":1,"isfriend":0,"isfamily":0,"url_o":"https:\/\/live.staticflickr.com\/65535\/47656723842_2d29fac69d_o.jpg","height_o":"3481","width_o":"5540"},{"id":"33823599548","owner":"35390579@N04","secret":"eee1c4fc2a","server":"65535","farm":66,"title":"Day115_2019","ispublic":1,"isfriend":0,"isfamily":0,"url_o":"https:\/\/live.staticflickr.com\/65535\/33823599548_94b25d982b_o.jpg","height_o":"666","width_o":"2000"},{"id":"47637007212","owner":"52272797@N06","secret":"5dc3648d7a","server":"65535","farm":66,"title":"Colorado
        - Denver Night Skyline with Moon - TO TRADE","ispublic":1,"isfriend":0,"isfamily":0,"url_o":"https:\/\/live.staticflickr.com\/65535\/47637007212_890776e63d_o.jpg","height_o":"1240","width_o":"1744"},{"id":"32746760477","owner":"52272797@N06","secret":"3d41328076","server":"65535","farm":66,"title":"Colorado
        - Denver Daytime Skyline - TO TRADE","ispublic":1,"isfriend":0,"isfamily":0,"url_o":"https:\/\/live.staticflickr.com\/65535\/32746760477_d3ef71d28a_o.jpg","height_o":"1240","width_o":"1768"},{"id":"33785887438","owner":"18609453@N03","secret":"2862435d04","server":"65535","farm":66,"title":"Denver,
        Colorado","ispublic":1,"isfriend":0,"isfamily":0,"url_o":"https:\/\/live.staticflickr.com\/65535\/33785887438_54a04390c0_o.jpg","height_o":"1536","width_o":"2048"},{"id":"32717733087","owner":"143787765@N02","secret":"61416d8b2d","server":"65535","farm":66,"title":"Cloudless
        sunrise with the city skyline in silhouette behind the frozen lake. Taken
        on 2-2-19, at Sloan Lake in Denver, Colorado.  ~ ~ ~ ~ ~  #CanonRebelT5 #Canon
        #Rebel #T5 F\/11 87mm 1\/160s ISO-3200 #cloudless #sunrise #city #skyline
        #silhouette #frozen","ispublic":1,"isfriend":0,"isfamily":0,"url_o":"https:\/\/live.staticflickr.com\/65535\/32717733087_5a8afd2899_o.jpg","height_o":"1350","width_o":"2048"},{"id":"32691897517","owner":"11143435@N06","secret":"142cb38fcf","server":"65535","farm":66,"title":"Skyline","ispublic":1,"isfriend":0,"isfamily":0,"url_o":"https:\/\/live.staticflickr.com\/65535\/32691897517_b55c179d80_o.jpg","height_o":"4032","width_o":"3024"},{"id":"46718018985","owner":"156831486@N07","secret":"cd17f148e7","server":"65535","farm":66,"title":"In
        the Shadow of Blue Mountain","ispublic":1,"isfriend":0,"isfamily":0},{"id":"46901169534","owner":"145494988@N05","secret":"6c77713072","server":"65535","farm":66,"title":"Denver
        Skyline","ispublic":1,"isfriend":0,"isfamily":0},{"id":"33736413968","owner":"37817537@N08","secret":"458b8110ee","server":"65535","farm":66,"title":"20190401-0417
        Denver-Boston-NH","ispublic":1,"isfriend":0,"isfamily":0},{"id":"33736413728","owner":"37817537@N08","secret":"35c130e74f","server":"65535","farm":66,"title":"20190401-0417
        Denver-Boston-NH","ispublic":1,"isfriend":0,"isfamily":0},{"id":"46681664635","owner":"41438448@N05","secret":"6eca237bfe","server":"7841","farm":8,"title":"Denver
        2:56pm","ispublic":1,"isfriend":0,"isfamily":0},{"id":"46676440515","owner":"163929251@N07","secret":"a62160c071","server":"7880","farm":8,"title":"Give
        me feedback on California to New York road trip itinerary","ispublic":1,"isfriend":0,"isfamily":0,"url_o":"https:\/\/live.staticflickr.com\/7880\/46676440515_21226b017b_o.png","height_o":"494","width_o":"800"},{"id":"32647754247","owner":"52151580@N05","secret":"7eff8e4bea","server":"7889","farm":8,"title":"Denver
        Skyline","ispublic":1,"isfriend":0,"isfamily":0},{"id":"33713232948","owner":"52151580@N05","secret":"a407913662","server":"7855","farm":8,"title":"Denver
        Skyline2.jpg","ispublic":1,"isfriend":0,"isfamily":0},{"id":"46658481105","owner":"37817537@N08","secret":"315c8ab094","server":"7823","farm":8,"title":"20190401-0417
        Denver-Boston-NH","ispublic":1,"isfriend":0,"isfamily":0},{"id":"47515224382","owner":"104170763@N02","secret":"c4a1625815","server":"7824","farm":8,"title":"Denver
        skyline from coors field","ispublic":1,"isfriend":0,"isfamily":0,"url_o":"https:\/\/live.staticflickr.com\/7824\/47515224382_7cc270fff9_o.jpg","height_o":"3904","width_o":"6403"},{"id":"47555563731","owner":"38461298@N06","secret":"54a87b2594","server":"7849","farm":8,"title":"Cloudy
        Sunrise in Denver","ispublic":1,"isfriend":0,"isfamily":0,"url_o":"https:\/\/live.staticflickr.com\/7849\/47555563731_9f5ee7cb5d_o.jpg","height_o":"1280","width_o":"2560"},{"id":"33668817038","owner":"165043551@N07","secret":"727dfab9f6","server":"7924","farm":8,"title":"Denver''s
        New Skyline","ispublic":1,"isfriend":0,"isfamily":0,"url_o":"https:\/\/live.staticflickr.com\/7924\/33668817038_8273f50f47_o.jpg","height_o":"2469","width_o":"2469"},{"id":"46624770745","owner":"58318215@N08","secret":"76979119df","server":"7856","farm":8,"title":"Sunset","ispublic":1,"isfriend":0,"isfamily":0},{"id":"32593865677","owner":"143787765@N02","secret":"2537b2edbd","server":"7858","farm":8,"title":"Cloudless
        sunrise with the Denver skyline in silhouette, behind the frozen lake. Taken
        on 2-2-19, at Sloans Lake in Denver, Colorado.  ~ ~ ~ ~ ~  #CanonRebelT5 #Canon
        #Rebel #T5 F\/11 100mm 1\/125s ISO-2500 #cloudless #sunrise #Denver #skyline
        #silhouette #","ispublic":1,"isfriend":0,"isfamily":0,"url_o":"https:\/\/live.staticflickr.com\/7858\/32593865677_17d60c06d0_o.jpg","height_o":"1360","width_o":"2048"},{"id":"32590781177","owner":"104170763@N02","secret":"eccfdfee13","server":"7887","farm":8,"title":"Denver
        skyline","ispublic":1,"isfriend":0,"isfamily":0,"url_o":"https:\/\/live.staticflickr.com\/7887\/32590781177_aeb473e57e_o.jpg","height_o":"4075","width_o":"6132"},{"id":"33654925298","owner":"12714561@N05","secret":"5c844c8521","server":"7917","farm":8,"title":"Denver-City-Scape-Spread---Print","ispublic":1,"isfriend":0,"isfamily":0,"url_o":"https:\/\/live.staticflickr.com\/7917\/33654925298_9a2048647a_o.jpg","height_o":"2013","width_o":"2600"},{"id":"47468856882","owner":"67020828@N04","secret":"4782113425","server":"7885","farm":8,"title":"Denver
        Colorado \u2013 Skyline","ispublic":1,"isfriend":0,"isfamily":0},{"id":"46595823885","owner":"44872058@N04","secret":"6f1c326a5f","server":"7869","farm":8,"title":"Denver
        skyline","ispublic":1,"isfriend":0,"isfamily":0,"url_o":"https:\/\/live.staticflickr.com\/7869\/46595823885_d2e020894c_o.jpg","height_o":"1460","width_o":"5074"},{"id":"40503807683","owner":"160447436@N06","secret":"4e4f2a0cfa","server":"7820","farm":8,"title":"Cheap
        Flights To Denver From Boston $111RT","ispublic":1,"isfriend":0,"isfamily":0,"url_o":"https:\/\/live.staticflickr.com\/7820\/40503807683_f09cb35286_o.jpg","height_o":"1080","width_o":"1621"},{"id":"40503751773","owner":"160447436@N06","secret":"70e9b12f13","server":"7852","farm":8,"title":"Cheap
        Flights To Denver From Boston $111RT","ispublic":1,"isfriend":0,"isfamily":0,"url_o":"https:\/\/live.staticflickr.com\/7852\/40503751773_02c0bdb701_o.jpg","height_o":"1080","width_o":"1621"},{"id":"40501503113","owner":"161799762@N07","secret":"2722e0382f","server":"7891","farm":8,"title":"Denver
        skyline","ispublic":1,"isfriend":0,"isfamily":0,"url_o":"https:\/\/live.staticflickr.com\/7891\/40501503113_f29bc3eda3_o.jpg","height_o":"3456","width_o":"5184"},{"id":"32516117247","owner":"54515111@N00","secret":"fffe1c256e","server":"7877","farm":8,"title":"Skyline
        Park at Christmas - Downtown Denver","ispublic":1,"isfriend":0,"isfamily":0,"url_o":"https:\/\/live.staticflickr.com\/7877\/32516117247_33e053ebda_o.jpg","height_o":"3016","width_o":"4021"},{"id":"47404851602","owner":"54515111@N00","secret":"41c67ac709","server":"7835","farm":8,"title":"Skyline
        Park - Denver","ispublic":1,"isfriend":0,"isfamily":0,"url_o":"https:\/\/live.staticflickr.com\/7835\/47404851602_c206540cfe_o.jpg","height_o":"2944","width_o":"3925"},{"id":"47385519742","owner":"141852728@N05","secret":"eec629b8e1","server":"7861","farm":8,"title":"51st
        and Zuni Park, Denver","ispublic":1,"isfriend":0,"isfamily":0,"url_o":"https:\/\/live.staticflickr.com\/7861\/47385519742_76aaae7f8d_o.jpg","height_o":"4016","width_o":"6016"},{"id":"32494978337","owner":"154058244@N03","secret":"6bd87ec21e","server":"7916","farm":8,"title":"Trip
        to san francisco for rico gathers Authentic Maxx Williams Jersey","ispublic":1,"isfriend":0,"isfamily":0,"url_o":"https:\/\/live.staticflickr.com\/7916\/32494978337_1b8ec71f12_o.jpg","height_o":"640","width_o":"1024"},{"id":"40470264143","owner":"85971478@N03","secret":"20200231be","server":"7902","farm":8,"title":"Super
        Moon Over Denver - awaiting the super moon during twilight","ispublic":1,"isfriend":0,"isfamily":0},{"id":"33559519508","owner":"144092436@N03","secret":"d7589c713e","server":"7838","farm":8,"title":"Full
        Moon over Denver Skyline","ispublic":1,"isfriend":0,"isfamily":0},{"id":"46516782215","owner":"85971478@N03","secret":"2c1ddef797","server":"7921","farm":8,"title":"Super
        Worm Moon Over Denver II","ispublic":1,"isfriend":0,"isfamily":0},{"id":"46708660634","owner":"85971478@N03","secret":"6195b3dec7","server":"7902","farm":8,"title":"Super
        Moon Over Denver","ispublic":1,"isfriend":0,"isfamily":0},{"id":"32489271377","owner":"35946983@N00","secret":"fbf552c92e","server":"7814","farm":8,"title":"Enjoying
        the balcony","ispublic":1,"isfriend":0,"isfamily":0,"url_o":"https:\/\/live.staticflickr.com\/7814\/32489271377_fd224bc3cb_o.jpg","height_o":"4016","width_o":"6016"},{"id":"47431024431","owner":"35946983@N00","secret":"57e3bafccf","server":"7809","farm":8,"title":"Balcony
        view of Denver","ispublic":1,"isfriend":0,"isfamily":0,"url_o":"https:\/\/live.staticflickr.com\/7809\/47431024431_98ee5f1681_o.jpg","height_o":"4016","width_o":"6016"},{"id":"46509328925","owner":"139337430@N08","secret":"b009710f96","server":"7867","farm":8,"title":"5
        citywide plans aim to address Denver development, transit issues","ispublic":1,"isfriend":0,"isfamily":0,"url_o":"https:\/\/live.staticflickr.com\/7867\/46509328925_38ec3ab32c_o.jpg","height_o":"100","width_o":"100"},{"id":"33540098628","owner":"32693718@N07","secret":"d133b4c457","server":"7817","farm":8,"title":"20170815
        042 Denver, Colorado","ispublic":1,"isfriend":0,"isfamily":0,"url_o":"https:\/\/live.staticflickr.com\/7817\/33540098628_16b4f4238c_o.jpg","height_o":"2112","width_o":"2816"},{"id":"46683691744","owner":"95349100@N08","secret":"a39fd8f116","server":"7855","farm":8,"title":"R35","ispublic":1,"isfriend":0,"isfamily":0,"url_o":"https:\/\/live.staticflickr.com\/7855\/46683691744_036e7b13e3_o.jpg","height_o":"4160","width_o":"6240"},{"id":"46491727245","owner":"95349100@N08","secret":"3177df7d59","server":"7883","farm":8,"title":"Japan","ispublic":1,"isfriend":0,"isfamily":0,"url_o":"https:\/\/live.staticflickr.com\/7883\/46491727245_5063950614_o.jpg","height_o":"4160","width_o":"6240"},{"id":"46491726675","owner":"95349100@N08","secret":"693aef45fb","server":"4805","farm":5,"title":"WAILORD","ispublic":1,"isfriend":0,"isfamily":0,"url_o":"https:\/\/live.staticflickr.com\/4805\/46491726675_2ff813a892_o.jpg","height_o":"4160","width_o":"6240"},{"id":"40433538333","owner":"20286982@N07","secret":"bb203ba130","server":"7910","farm":8,"title":"City
        Park Pavilion","ispublic":1,"isfriend":0,"isfamily":0,"url_o":"https:\/\/live.staticflickr.com\/7910\/40433538333_0de60d81e5_o.jpg","height_o":"2577","width_o":"4606"},{"id":"47377849611","owner":"20816374@N04","secret":"1c0283ed3c","server":"7885","farm":8,"title":"IMGP8205-Pano-Edit","ispublic":1,"isfriend":0,"isfamily":0,"url_o":"https:\/\/live.staticflickr.com\/7885\/47377849611_b417e5c130_o.jpg","height_o":"519","width_o":"1000"}]},"stat":"ok"}'
    http_version: 
  recorded_at: Wed, 31 Jul 2019 18:18:15 GMT
recorded_with: VCR 5.0.0
